simulation/qsim/Projeto.msim.vcd
$comment
	File created using the following command:
		vcd file Projeto.msim.vcd -direction
$end
$date
	Wed May 17 19:34:56 2023
$end
$version
	ModelSim Version 2020.1
$end
$timescale
	1ps
$end

$scope module timerfsm_vhd_vec_tst $end
$var wire 1 ! clk $end
$var wire 1 " newTime $end
$var wire 1 # reset $end
$var wire 1 $ timerEnable $end
$var wire 1 % timerExp $end
$var wire 1 & timeValue [7] $end
$var wire 1 ' timeValue [6] $end
$var wire 1 ( timeValue [5] $end
$var wire 1 ) timeValue [4] $end
$var wire 1 * timeValue [3] $end
$var wire 1 + timeValue [2] $end
$var wire 1 , timeValue [1] $end
$var wire 1 - timeValue [0] $end

$scope module i1 $end
$var wire 1 . gnd $end
$var wire 1 / vcc $end
$var wire 1 0 unknown $end
$var wire 1 1 devoe $end
$var wire 1 2 devclrn $end
$var wire 1 3 devpor $end
$var wire 1 4 ww_devoe $end
$var wire 1 5 ww_devclrn $end
$var wire 1 6 ww_devpor $end
$var wire 1 7 ww_clk $end
$var wire 1 8 ww_reset $end
$var wire 1 9 ww_newTime $end
$var wire 1 : ww_timeValue [7] $end
$var wire 1 ; ww_timeValue [6] $end
$var wire 1 < ww_timeValue [5] $end
$var wire 1 = ww_timeValue [4] $end
$var wire 1 > ww_timeValue [3] $end
$var wire 1 ? ww_timeValue [2] $end
$var wire 1 @ ww_timeValue [1] $end
$var wire 1 A ww_timeValue [0] $end
$var wire 1 B ww_timerEnable $end
$var wire 1 C ww_timerExp $end
$var wire 1 D \reset~inputclkctrl_INCLK_bus\ [3] $end
$var wire 1 E \reset~inputclkctrl_INCLK_bus\ [2] $end
$var wire 1 F \reset~inputclkctrl_INCLK_bus\ [1] $end
$var wire 1 G \reset~inputclkctrl_INCLK_bus\ [0] $end
$var wire 1 H \clk~inputclkctrl_INCLK_bus\ [3] $end
$var wire 1 I \clk~inputclkctrl_INCLK_bus\ [2] $end
$var wire 1 J \clk~inputclkctrl_INCLK_bus\ [1] $end
$var wire 1 K \clk~inputclkctrl_INCLK_bus\ [0] $end
$var wire 1 L \timerExp~output_o\ $end
$var wire 1 M \clk~input_o\ $end
$var wire 1 N \clk~inputclkctrl_outclk\ $end
$var wire 1 O \newTime~input_o\ $end
$var wire 1 P \timeValue[1]~input_o\ $end
$var wire 1 Q \count[1]~6_combout\ $end
$var wire 1 R \timerEnable~input_o\ $end
$var wire 1 S \timeValue[0]~input_o\ $end
$var wire 1 T \count[0]~7_combout\ $end
$var wire 1 U \Add0~0_combout\ $end
$var wire 1 V \timeValue[5]~input_o\ $end
$var wire 1 W \count[5]~2_combout\ $end
$var wire 1 X \timeValue[4]~input_o\ $end
$var wire 1 Y \count[4]~3_combout\ $end
$var wire 1 Z \timeValue[3]~input_o\ $end
$var wire 1 [ \count[3]~4_combout\ $end
$var wire 1 \ \timeValue[2]~input_o\ $end
$var wire 1 ] \count[2]~5_combout\ $end
$var wire 1 ^ \Add0~3\ $end
$var wire 1 _ \Add0~4_combout\ $end
$var wire 1 ` \Add0~21_combout\ $end
$var wire 1 a \reset~input_o\ $end
$var wire 1 b \reset~inputclkctrl_outclk\ $end
$var wire 1 c \process_0~0_combout\ $end
$var wire 1 d \count[7]~8_combout\ $end
$var wire 1 e \Add0~5\ $end
$var wire 1 f \Add0~6_combout\ $end
$var wire 1 g \Add0~20_combout\ $end
$var wire 1 h \Add0~7\ $end
$var wire 1 i \Add0~8_combout\ $end
$var wire 1 j \Add0~19_combout\ $end
$var wire 1 k \Add0~9\ $end
$var wire 1 l \Add0~10_combout\ $end
$var wire 1 m \Add0~18_combout\ $end
$var wire 1 n \timeValue[7]~input_o\ $end
$var wire 1 o \count[7]~0_combout\ $end
$var wire 1 p \timeValue[6]~input_o\ $end
$var wire 1 q \count[6]~1_combout\ $end
$var wire 1 r \Add0~11\ $end
$var wire 1 s \Add0~12_combout\ $end
$var wire 1 t \Add0~17_combout\ $end
$var wire 1 u \Add0~13\ $end
$var wire 1 v \Add0~14_combout\ $end
$var wire 1 w \Add0~16_combout\ $end
$var wire 1 x \Equal0~0_combout\ $end
$var wire 1 y \Add0~23_combout\ $end
$var wire 1 z \Add0~1\ $end
$var wire 1 { \Add0~2_combout\ $end
$var wire 1 | \Add0~22_combout\ $end
$var wire 1 } \Equal0~1_combout\ $end
$var wire 1 ~ \pulse~0_combout\ $end
$var wire 1 !! \pulse~1_combout\ $end
$var wire 1 "! \pulse~q\ $end
$var wire 1 #! count [7] $end
$var wire 1 $! count [6] $end
$var wire 1 %! count [5] $end
$var wire 1 &! count [4] $end
$var wire 1 '! count [3] $end
$var wire 1 (! count [2] $end
$var wire 1 )! count [1] $end
$var wire 1 *! count [0] $end
$var wire 1 +! \ALT_INV_reset~inputclkctrl_outclk\ $end
$upscope $end
$upscope $end
$enddefinitions $end
#0
$dumpvars
0!
0"
1#
1$
0%
0.
1/
x0
11
12
13
14
15
16
07
18
09
1B
0C
0L
0M
0N
0O
1P
0Q
1R
0S
0T
1U
0V
0W
0X
0Y
1Z
0[
0\
0]
1^
1_
1`
1a
1b
0c
0d
0e
1f
1g
1h
1i
1j
0k
1l
1m
0n
0o
0p
0q
1r
1s
1t
0u
1v
1w
1x
1y
0z
1{
1|
1}
1~
1!!
0"!
0+!
0&
0'
0(
0)
1*
0+
1,
0-
0:
0;
0<
0=
1>
0?
1@
0A
0#!
0$!
0%!
0&!
0'!
0(!
0)!
0*!
1H
1I
1J
0K
1D
1E
1F
1G
$end
#10000
0#
1!
08
17
1M
0a
1K
0G
0b
1N
1+!
#20000
0!
1"
07
19
1O
0M
0K
1Q
1[
0~
0!!
0N
#30000
1!
17
1M
1K
1N
1'!
1)!
0{
0^
0f
0h
0}
1c
0i
1k
0g
0_
1e
0|
1f
0`
0l
0r
0j
0s
1u
0m
1g
0v
0t
0w
#40000
0!
0"
07
09
0O
0M
0K
1d
0N
#50000
1!
17
1M
1K
1N
1*!
0)!
0Q
1{
1^
1T
0U
1z
0{
0^
0y
1_
0e
1|
0f
1`
0_
1e
0|
1f
0`
0g
1g
#60000
0!
07
0M
0K
0N
#70000
1!
17
1M
1K
1N
0*!
0T
1U
0z
1{
1^
1y
1_
0e
1|
0f
1`
0g
#80000
0!
07
0M
0K
0N
#90000
1!
17
1M
1K
1N
1(!
0'!
1*!
1)!
1Q
0{
0^
1T
0U
1z
0[
1f
1h
1]
0_
1e
0f
0h
0`
1i
0k
1g
1{
0y
1_
0|
1`
1|
1l
1r
1j
0i
1k
0g
0l
0r
0j
1s
0u
1m
1v
1t
0s
1u
0m
0v
0t
1w
0w
#100000
0!
07
0M
0K
0N
#110000
1!
17
1M
1K
1N
0*!
0T
1U
0z
0{
1y
0|
#120000
0!
07
0M
0K
0N
#130000
1!
17
1M
1K
1N
1*!
0)!
0Q
1{
1^
1T
0U
1z
0{
0^
0y
0_
1|
0`
1_
0|
1`
#140000
0!
07
0M
0K
0N
#150000
1!
17
1M
1K
1N
0*!
0T
1U
0z
1{
1^
1y
0_
1|
0`
#160000
0!
07
0M
0K
0N
#170000
1!
17
1M
1K
1N
0(!
1*!
1)!
1Q
0{
0^
1T
0U
1z
0]
1_
0e
1f
1h
1`
1{
0y
0_
1e
0|
0f
0h
0`
1|
1i
0k
1g
1l
1r
1j
0i
1k
0g
0l
0r
0j
1s
0u
1m
1v
1t
0s
1u
0m
0v
0t
1w
0w
#180000
0!
07
0M
0K
0N
#190000
1!
17
1M
1K
1N
0*!
0T
1U
0z
0{
1y
0|
#200000
0!
07
0M
0K
0N
#210000
1!
17
1M
1K
1N
1*!
0)!
0Q
1{
1^
1T
0U
1z
0{
0^
0y
1_
0e
1|
1f
1h
1`
0_
1e
0|
0f
0h
0`
1i
0k
1g
1l
1r
1j
0i
1k
0g
0l
0r
0j
1s
0u
1m
1v
1t
0s
1u
0m
0v
0t
1w
0w
#220000
0!
1"
07
19
1O
0M
0K
1Q
0T
1[
0d
0N
#230000
1!
17
1M
1K
1N
1'!
0*!
1)!
1{
1U
0z
1f
1g
0{
1y
1|
0|
#240000
0!
0"
07
09
0O
0M
0K
1d
0N
#250000
1!
17
1M
1K
1N
1*!
0)!
0Q
1{
1^
1T
0U
1z
0{
0^
0y
1_
0e
1|
0f
1`
0_
1e
0|
1f
0`
0g
1g
#260000
0!
07
0M
0K
0N
#270000
1!
17
1M
1K
1N
0*!
0T
1U
0z
1{
1^
1y
1_
0e
1|
0f
1`
0g
#280000
0!
07
0M
0K
0N
#290000
1!
17
1M
1K
1N
1(!
0'!
1*!
1)!
1Q
0{
0^
1T
0U
1z
0[
1f
1h
1]
0_
1e
0f
0h
0`
1i
0k
1g
1{
0y
1_
0|
1`
1|
1l
1r
1j
0i
1k
0g
0l
0r
0j
1s
0u
1m
1v
1t
0s
1u
0m
0v
0t
1w
0w
#300000
0!
07
0M
0K
0N
#310000
1!
17
1M
1K
1N
0*!
0T
1U
0z
0{
1y
0|
#320000
0!
07
0M
0K
0N
#330000
1!
17
1M
1K
1N
1*!
0)!
0Q
1{
1^
1T
0U
1z
0{
0^
0y
0_
1|
0`
1_
0|
1`
#340000
0!
07
0M
0K
0N
#350000
1!
17
1M
1K
1N
0*!
0T
1U
0z
1{
1^
1y
0_
1|
0`
#360000
0!
07
0M
0K
0N
#370000
1!
17
1M
1K
1N
0(!
1*!
1)!
1Q
0{
0^
1T
0U
1z
0]
1_
0e
1f
1h
1`
1{
0y
0_
1e
0|
0f
0h
0`
1|
1i
0k
1g
1l
1r
1j
0i
1k
0g
0l
0r
0j
1s
0u
1m
1v
1t
0s
1u
0m
0v
0t
1w
0w
#380000
0!
07
0M
0K
0N
#390000
1!
17
1M
1K
1N
0*!
0T
1U
0z
0{
1y
0|
#400000
0!
07
0M
0K
0N
#410000
1!
17
1M
1K
1N
1*!
0)!
0Q
1{
1^
1T
0U
1z
0{
0^
0y
1_
0e
1|
1f
1h
1`
0_
1e
0|
0f
0h
0`
1i
0k
1g
1l
1r
1j
0i
1k
0g
0l
0r
0j
1s
0u
1m
1v
1t
0s
1u
0m
0v
0t
1w
0w
#420000
0!
07
0M
0K
0N
#430000
1!
17
1M
1K
1N
0*!
0T
1U
0z
1}
1`
0c
1g
1j
1m
1t
1w
1|
1~
1{
1^
1y
1_
0e
0d
1!!
1f
1h
1i
0k
1l
1r
1s
0u
1v
#440000
0!
07
0M
0K
0N
#450000
1!
17
1M
1K
1N
1"!
1d
0~
0!!
1L
1C
1%
#460000
0!
07
0M
0K
0N
#470000
1!
17
1M
1K
1N
1(!
1'!
1&!
1%!
1$!
1#!
1*!
1)!
0"!
0d
1~
1Q
0{
0^
1T
0U
1z
1o
0v
1q
0s
1u
1W
0l
0r
1Y
0i
1k
0x
1[
0f
0h
1]
0_
1e
0}
1f
1i
0`
1c
0g
0~
1l
0j
1s
0m
1v
0t
0w
1{
0y
1_
0|
1!!
0L
1`
1|
1w
1t
1m
1d
0!!
1j
1g
0C
0%
#480000
0!
07
0M
0K
0N
#490000
1!
17
1M
1K
1N
0*!
0T
1U
0z
0{
1y
0|
#500000
0!
07
0M
0K
0N
#510000
1!
17
1M
1K
1N
1*!
0)!
0Q
1{
1^
1T
0U
1z
0{
0^
0y
0_
1|
0`
1_
0|
1`
#520000
0!
07
0M
0K
0N
#530000
1!
17
1M
1K
1N
0*!
0T
1U
0z
1{
1^
1y
0_
1|
0`
#540000
0!
07
0M
0K
0N
#550000
1!
17
1M
1K
1N
0(!
1*!
1)!
1Q
0{
0^
1T
0U
1z
0]
1_
0e
0f
1`
1{
0y
0_
1e
0|
1f
0`
1|
0g
1g
#560000
0!
07
0M
0K
0N
#570000
1!
17
1M
1K
1N
0*!
0T
1U
0z
0{
1y
0|
#580000
0!
07
0M
0K
0N
#590000
1!
17
1M
1K
1N
1*!
0)!
0Q
1{
1^
1T
0U
1z
0{
0^
0y
1_
0e
1|
0f
1`
0_
1e
0|
1f
0`
0g
1g
#600000
0!
07
0M
0K
0N
#610000
1!
17
1M
1K
1N
0*!
0T
1U
0z
1{
1^
1y
1_
0e
1|
0f
1`
0g
#620000
0!
07
0M
0K
0N
#630000
1!
17
1M
1K
1N
1(!
0'!
1*!
1)!
1Q
0{
0^
1T
0U
1z
0[
1f
1h
1]
0_
1e
0f
0h
0`
0i
1g
1{
0y
1_
0|
1`
1|
0j
1i
0g
1j
#640000
0!
07
0M
0K
0N
#650000
1!
17
1M
1K
1N
0*!
0T
1U
0z
0{
1y
0|
#660000
0!
07
0M
0K
0N
#670000
1!
17
1M
1K
1N
1*!
0)!
0Q
1{
1^
1T
0U
1z
0{
0^
0y
0_
1|
0`
1_
0|
1`
#680000
0!
07
0M
0K
0N
#690000
1!
17
1M
1K
1N
0*!
0T
1U
0z
1{
1^
1y
0_
1|
0`
#700000
0!
07
0M
0K
0N
#710000
1!
17
1M
1K
1N
0(!
1*!
1)!
1Q
0{
0^
1T
0U
1z
0]
1_
0e
1f
1h
1`
1{
0y
0_
1e
0|
0f
0h
0`
1|
0i
1g
0j
1i
0g
1j
#720000
0!
07
0M
0K
0N
#730000
1!
17
1M
1K
1N
0*!
0T
1U
0z
0{
1y
0|
#740000
0!
07
0M
0K
0N
#750000
1!
17
1M
1K
1N
1*!
0)!
0Q
1{
1^
1T
0U
1z
0{
0^
0y
1_
0e
1|
1f
1h
1`
0_
1e
0|
0f
0h
0`
0i
1g
0j
1i
0g
1j
#760000
0!
07
0M
0K
0N
#770000
1!
17
1M
1K
1N
0*!
0T
1U
0z
1}
1{
1^
1y
1_
0e
1|
1f
1h
1`
0i
1g
0j
#780000
0!
07
0M
0K
0N
#790000
1!
17
1M
1K
1N
1(!
1'!
0&!
1*!
1)!
1Q
0{
0^
1T
0U
1z
0Y
1i
0k
1[
0f
0h
1]
0_
1e
0}
1f
0`
0i
1k
0g
0l
1j
1{
0y
1_
0|
1`
1|
0m
1l
0j
1g
1m
#800000
0!
07
0M
0K
0N
#810000
1!
17
1M
1K
1N
0*!
0T
1U
0z
0{
1y
0|
#820000
0!
07
0M
0K
0N
#830000
1!
17
1M
1K
1N
1*!
0)!
0Q
1{
1^
1T
0U
1z
0{
0^
0y
0_
1|
0`
1_
0|
1`
#840000
0!
07
0M
0K
0N
#850000
1!
17
1M
1K
1N
0*!
0T
1U
0z
1{
1^
1y
0_
1|
0`
#860000
0!
07
0M
0K
0N
#870000
1!
17
1M
1K
1N
0(!
1*!
1)!
1Q
0{
0^
1T
0U
1z
0]
1_
0e
0f
1`
1{
0y
0_
1e
0|
1f
0`
1|
0g
1g
#880000
0!
07
0M
0K
0N
#890000
1!
17
1M
1K
1N
0*!
0T
1U
0z
0{
1y
0|
#900000
0!
07
0M
0K
0N
#910000
1!
17
1M
1K
1N
1*!
0)!
0Q
1{
1^
1T
0U
1z
0{
0^
0y
1_
0e
1|
0f
1`
0_
1e
0|
1f
0`
0g
1g
#920000
0!
07
0M
0K
0N
#930000
1!
17
1M
1K
1N
0*!
0T
1U
0z
1{
1^
1y
1_
0e
1|
0f
1`
0g
#940000
0!
07
0M
0K
0N
#950000
1!
17
1M
1K
1N
1(!
0'!
1*!
1)!
1Q
0{
0^
1T
0U
1z
0[
1f
1h
1]
0_
1e
0f
0h
0`
1i
0k
1g
1{
0y
1_
0|
1`
1|
0l
1j
0i
1k
0g
1l
0j
0m
1m
#960000
0!
07
0M
0K
0N
#970000
1!
17
1M
1K
1N
0*!
0T
1U
0z
0{
1y
0|
#980000
0!
07
0M
0K
0N
#990000
1!
17
1M
1K
1N
1*!
0)!
0Q
1{
1^
1T
0U
1z
0{
0^
0y
0_
1|
0`
1_
0|
1`
